\relax 
\providecommand\hyper@newdestlabel[2]{}
\catcode `"\active 
\catcode `<\active 
\catcode `>\active 
\@nameuse{es@quoting}
\providecommand\HyperFirstAtBeginDocument{\AtBeginDocument}
\HyperFirstAtBeginDocument{\ifx\hyper@anchor\@undefined
\global\let\oldcontentsline\contentsline
\gdef\contentsline#1#2#3#4{\oldcontentsline{#1}{#2}{#3}}
\global\let\oldnewlabel\newlabel
\gdef\newlabel#1#2{\newlabelxx{#1}#2}
\gdef\newlabelxx#1#2#3#4#5#6{\oldnewlabel{#1}{{#2}{#3}}}
\AtEndDocument{\ifx\hyper@anchor\@undefined
\let\contentsline\oldcontentsline
\let\newlabel\oldnewlabel
\fi}
\fi}
\global\let\hyper@last\relax 
\gdef\HyperFirstAtBeginDocument#1{#1}
\providecommand\HyField@AuxAddToFields[1]{}
\providecommand\HyField@AuxAddToCoFields[2]{}
\abx@aux@sortscheme{nty}
\abx@aux@refcontext{nty/global/}
\@writefile{toc}{\boolfalse {citerequest}\boolfalse {citetracker}\boolfalse {pagetracker}\boolfalse {backtracker}\relax }
\@writefile{lof}{\boolfalse {citerequest}\boolfalse {citetracker}\boolfalse {pagetracker}\boolfalse {backtracker}\relax }
\@writefile{lot}{\boolfalse {citerequest}\boolfalse {citetracker}\boolfalse {pagetracker}\boolfalse {backtracker}\relax }
\select@language{spanish}
\@writefile{toc}{\defcounter {refsection}{0}\relax }\@writefile{toc}{\select@language{spanish}}
\@writefile{lof}{\defcounter {refsection}{0}\relax }\@writefile{lof}{\select@language{spanish}}
\@writefile{lot}{\defcounter {refsection}{0}\relax }\@writefile{lot}{\select@language{spanish}}
\@input{tex/protocolo.aux}
\abx@aux@cite{gnu2017a}
\abx@aux@segm{0}{0}{gnu2017a}
\abx@aux@cite{open2016a}
\abx@aux@segm{0}{0}{open2016a}
\abx@aux@fnpage{1}{2}
\abx@aux@fnpage{2}{2}
\abx@aux@cite{indautor1996a}
\abx@aux@segm{0}{0}{indautor1996a}
\abx@aux@cite{bbc2017a}
\abx@aux@segm{0}{0}{bbc2017a}
\abx@aux@cite{publimetro2017a}
\abx@aux@segm{0}{0}{publimetro2017a}
\abx@aux@cite{eff2017a}
\abx@aux@segm{0}{0}{eff2017a}
\abx@aux@cite{readium2017a}
\abx@aux@segm{0}{0}{readium2017a}
\abx@aux@fnpage{3}{3}
\abx@aux@fnpage{4}{3}
\abx@aux@fnpage{5}{3}
\abx@aux@segm{0}{0}{indautor1996a}
\abx@aux@fnpage{6}{4}
\abx@aux@fnpage{7}{4}
\abx@aux@fnpage{8}{4}
\abx@aux@cite{fiormonte2017a}
\abx@aux@segm{0}{0}{fiormonte2017a}
\abx@aux@cite{contitucioneeuu1787a}
\abx@aux@segm{0}{0}{contitucioneeuu1787a}
\abx@aux@cite{moore2014a}
\abx@aux@segm{0}{0}{moore2014a}
\abx@aux@fnpage{9}{6}
\abx@aux@fnpage{10}{6}
\abx@aux@cite{stengel2004a}
\abx@aux@segm{0}{0}{stengel2004a}
\abx@aux@fnpage{11}{7}
\abx@aux@cite{moore2012a}
\abx@aux@segm{0}{0}{moore2012a}
\abx@aux@cite{moore2008a}
\abx@aux@segm{0}{0}{moore2008a}
\abx@aux@fnpage{12}{8}
\abx@aux@fnpage{13}{8}
\abx@aux@cite{schroeder2004a}
\abx@aux@segm{0}{0}{schroeder2004a}
\abx@aux@fnpage{14}{9}
\abx@aux@fnpage{15}{9}
\abx@aux@cite{cerlalc2015a}
\abx@aux@segm{0}{0}{cerlalc2015a}
\abx@aux@fnpage{16}{14}
\abx@aux@cite{sledu2013a}
\abx@aux@segm{0}{0}{sledu2013a}
\abx@aux@fnpage{17}{15}
\abx@aux@cite{althusser1970a}
\abx@aux@segm{0}{0}{althusser1970a}
\abx@aux@cite{arkaute2008a}
\abx@aux@segm{0}{0}{arkaute2008a}
\abx@aux@cite{arteaga2008a}
\abx@aux@segm{0}{0}{arteaga2008a}
\abx@aux@cite{barlow2016a}
\abx@aux@segm{0}{0}{barlow2016a}
\abx@aux@cite{barron2012a}
\abx@aux@segm{0}{0}{barron2012a}
\abx@aux@cite{barthes1968a}
\abx@aux@segm{0}{0}{barthes1968a}
\abx@aux@cite{boeta2008a}
\abx@aux@segm{0}{0}{boeta2008a}
\abx@aux@cite{bollier2016a}
\abx@aux@segm{0}{0}{bollier2016a}
\abx@aux@cite{bourdieu2008a}
\abx@aux@segm{0}{0}{bourdieu2008a}
\abx@aux@cite{bravo2005a}
\abx@aux@segm{0}{0}{bravo2005a}
\abx@aux@cite{breakey2010a}
\abx@aux@segm{0}{0}{breakey2010a}
\abx@aux@cite{child1990a}
\abx@aux@segm{0}{0}{child1990a}
\abx@aux@cite{derrida2002a}
\abx@aux@segm{0}{0}{derrida2002a}
\abx@aux@cite{htec1990a}
\abx@aux@segm{0}{0}{htec1990a}
\abx@aux@cite{htec1991a}
\abx@aux@segm{0}{0}{htec1991a}
\abx@aux@cite{htec1991b}
\abx@aux@segm{0}{0}{htec1991b}
\abx@aux@segm{0}{0}{eff2017a}
\abx@aux@cite{drahos1996a}
\abx@aux@segm{0}{0}{drahos1996a}
\abx@aux@cite{eco2016a}
\abx@aux@segm{0}{0}{eco2016a}
\abx@aux@segm{0}{0}{fiormonte2017a}
\abx@aux@cite{fisher2016a}
\abx@aux@segm{0}{0}{fisher2016a}
\abx@aux@cite{foucault1999a}
\abx@aux@segm{0}{0}{foucault1999a}
\abx@aux@cite{gilmore2004a}
\abx@aux@segm{0}{0}{gilmore2004a}
\abx@aux@cite{hall2009a}
\abx@aux@segm{0}{0}{hall2009a}
\abx@aux@cite{hall2016a}
\abx@aux@segm{0}{0}{hall2016a}
\abx@aux@cite{hall2012a}
\abx@aux@segm{0}{0}{hall2012a}
\abx@aux@cite{hall2009b}
\abx@aux@segm{0}{0}{hall2009b}
\abx@aux@cite{hall2016b}
\abx@aux@segm{0}{0}{hall2016b}
\abx@aux@cite{hegel2005a}
\abx@aux@segm{0}{0}{hegel2005a}
\abx@aux@cite{heidegger1994a}
\abx@aux@segm{0}{0}{heidegger1994a}
\abx@aux@cite{hettinger1989a}
\abx@aux@segm{0}{0}{hettinger1989a}
\abx@aux@cite{himma2006a}
\abx@aux@segm{0}{0}{himma2006a}
\abx@aux@cite{hughes1988a}
\abx@aux@segm{0}{0}{hughes1988a}
\abx@aux@cite{illich1985a}
\abx@aux@segm{0}{0}{illich1985a}
\abx@aux@cite{jimenez2008a}
\abx@aux@segm{0}{0}{jimenez2008a}
\abx@aux@cite{kant2005a}
\abx@aux@segm{0}{0}{kant2005a}
\abx@aux@cite{kuflik1989a}
\abx@aux@segm{0}{0}{kuflik1989a}
\abx@aux@cite{lenk2007a}
\abx@aux@segm{0}{0}{lenk2007a}
\abx@aux@cite{lessig2009a}
\abx@aux@segm{0}{0}{lessig2009a}
\abx@aux@cite{lessig2011a}
\abx@aux@segm{0}{0}{lessig2011a}
\abx@aux@cite{lessig2001a}
\abx@aux@segm{0}{0}{lessig2001a}
\abx@aux@cite{lessig2012a}
\abx@aux@segm{0}{0}{lessig2012a}
\abx@aux@cite{lever2012a}
\abx@aux@segm{0}{0}{lever2012a}
\abx@aux@cite{levy2016a}
\abx@aux@segm{0}{0}{levy2016a}
\abx@aux@cite{locke2006a}
\abx@aux@segm{0}{0}{locke2006a}
\abx@aux@cite{lopez2008a}
\abx@aux@segm{0}{0}{lopez2008a}
\abx@aux@cite{mcleod2009a}
\abx@aux@segm{0}{0}{mcleod2009a}
\abx@aux@cite{ming2016a}
\abx@aux@segm{0}{0}{ming2016a}
\abx@aux@segm{0}{0}{moore2014a}
\abx@aux@segm{0}{0}{moore2008a}
\abx@aux@segm{0}{0}{moore2012a}
\abx@aux@cite{nivon2016a}
\abx@aux@segm{0}{0}{nivon2016a}
\abx@aux@cite{ortmann2016a}
\abx@aux@segm{0}{0}{ortmann2016a}
\abx@aux@cite{palmer1990a}
\abx@aux@segm{0}{0}{palmer1990a}
\abx@aux@cite{papatheo2016a}
\abx@aux@segm{0}{0}{papatheo2016a}
\abx@aux@cite{rangel2016a}
\abx@aux@segm{0}{0}{rangel2016a}
\abx@aux@cite{raymond2016a}
\abx@aux@segm{0}{0}{raymond2016a}
\abx@aux@cite{rendueles2016a}
\abx@aux@segm{0}{0}{rendueles2016a}
\abx@aux@cite{ringenbach2016a}
\abx@aux@segm{0}{0}{ringenbach2016a}
\abx@aux@cite{rojo2016a}
\abx@aux@segm{0}{0}{rojo2016a}
\abx@aux@cite{rose1993a}
\abx@aux@segm{0}{0}{rose1993a}
\abx@aux@cite{sanchez2016a}
\abx@aux@segm{0}{0}{sanchez2016a}
\abx@aux@segm{0}{0}{schroeder2004a}
\abx@aux@cite{shiffrin2007a}
\abx@aux@segm{0}{0}{shiffrin2007a}
\abx@aux@cite{stallman2004a}
\abx@aux@segm{0}{0}{stallman2004a}
\abx@aux@cite{stallman2016a}
\abx@aux@segm{0}{0}{stallman2016a}
\abx@aux@segm{0}{0}{stengel2004a}
\abx@aux@segm{0}{0}{indautor1996a}
\abx@aux@segm{0}{0}{cerlalc2015a}
\abx@aux@segm{0}{0}{open2016a}
\abx@aux@cite{wayner2000a}
\abx@aux@segm{0}{0}{wayner2000a}
\abx@aux@cite{sam2010a}
\abx@aux@segm{0}{0}{sam2010a}
\abx@aux@cite{htec1988a}
\abx@aux@segm{0}{0}{htec1988a}
\abx@aux@cite{htec1988b}
\abx@aux@segm{0}{0}{htec1988b}
\abx@aux@cite{yudice2008a}
\abx@aux@segm{0}{0}{yudice2008a}
\abx@aux@segm{0}{0}{gnu2017a}
\abx@aux@segm{0}{0}{bbc2017a}
\abx@aux@segm{0}{0}{publimetro2017a}
\abx@aux@segm{0}{0}{readium2017a}
\abx@aux@segm{0}{0}{contitucioneeuu1787a}
\abx@aux@segm{0}{0}{sledu2013a}
\abx@aux@page{18}{19}
\abx@aux@page{19}{19}
\abx@aux@page{20}{19}
\abx@aux@page{21}{19}
\abx@aux@page{22}{19}
\abx@aux@page{23}{19}
\abx@aux@page{24}{19}
\abx@aux@page{25}{19}
\abx@aux@page{26}{20}
\abx@aux@page{27}{20}
\abx@aux@page{28}{20}
\abx@aux@page{29}{20}
\abx@aux@page{30}{20}
\abx@aux@page{31}{20}
\abx@aux@page{32}{20}
\abx@aux@page{33}{20}
\abx@aux@page{34}{20}
\abx@aux@page{35}{20}
\abx@aux@page{36}{20}
\abx@aux@page{37}{20}
\abx@aux@page{38}{21}
\abx@aux@page{39}{21}
\abx@aux@page{40}{21}
\abx@aux@page{41}{21}
\abx@aux@page{42}{21}
\abx@aux@page{43}{21}
\abx@aux@page{44}{21}
\abx@aux@page{45}{21}
\abx@aux@page{46}{21}
\abx@aux@page{47}{21}
\abx@aux@page{48}{22}
\abx@aux@page{49}{22}
\abx@aux@page{50}{22}
\abx@aux@page{51}{22}
\abx@aux@page{52}{22}
\abx@aux@page{53}{22}
\abx@aux@page{54}{22}
\abx@aux@page{55}{22}
\abx@aux@page{56}{23}
\abx@aux@page{57}{23}
\abx@aux@page{58}{23}
\abx@aux@page{59}{23}
\abx@aux@page{60}{23}
\abx@aux@page{61}{23}
\abx@aux@page{62}{23}
\abx@aux@page{63}{23}
\abx@aux@page{64}{23}
\abx@aux@page{65}{23}
\abx@aux@page{66}{24}
\abx@aux@page{67}{24}
\abx@aux@page{68}{24}
\abx@aux@page{69}{24}
\abx@aux@page{70}{24}
\abx@aux@page{71}{24}
\abx@aux@page{72}{24}
\abx@aux@page{73}{24}
\abx@aux@page{74}{24}
\abx@aux@page{75}{25}
\abx@aux@page{76}{25}
\abx@aux@page{77}{25}
\abx@aux@page{78}{25}
\abx@aux@page{79}{25}
\abx@aux@page{80}{25}
\abx@aux@page{81}{25}
\abx@aux@page{82}{25}
\abx@aux@page{83}{25}
\abx@aux@page{84}{26}
\abx@aux@page{85}{26}
\abx@aux@page{86}{26}
\abx@aux@page{87}{26}
\abx@aux@page{88}{26}
\abx@aux@page{89}{26}
\abx@aux@page{90}{26}
\abx@aux@page{91}{26}
\abx@aux@page{92}{26}
\abx@aux@page{93}{27}
\abx@aux@page{94}{27}
\abx@aux@page{95}{27}
\abx@aux@page{96}{27}
\abx@aux@page{97}{27}
\abx@aux@refcontextdefaultsdone
\abx@aux@defaultrefcontext{0}{open2016a}{nty/global/}
\abx@aux@defaultrefcontext{0}{althusser1970a}{nty/global/}
\abx@aux@defaultrefcontext{0}{barlow2016a}{nty/global/}
\abx@aux@defaultrefcontext{0}{barron2012a}{nty/global/}
\abx@aux@defaultrefcontext{0}{barthes1968a}{nty/global/}
\abx@aux@defaultrefcontext{0}{bourdieu2008a}{nty/global/}
\abx@aux@defaultrefcontext{0}{child1990a}{nty/global/}
\abx@aux@defaultrefcontext{0}{derrida2002a}{nty/global/}
\abx@aux@defaultrefcontext{0}{drahos1996a}{nty/global/}
\abx@aux@defaultrefcontext{0}{fisher2016a}{nty/global/}
\abx@aux@defaultrefcontext{0}{foucault1999a}{nty/global/}
\abx@aux@defaultrefcontext{0}{hall2009a}{nty/global/}
\abx@aux@defaultrefcontext{0}{hall2016a}{nty/global/}
\abx@aux@defaultrefcontext{0}{hall2009b}{nty/global/}
\abx@aux@defaultrefcontext{0}{hall2012a}{nty/global/}
\abx@aux@defaultrefcontext{0}{hall2016b}{nty/global/}
\abx@aux@defaultrefcontext{0}{hegel2005a}{nty/global/}
\abx@aux@defaultrefcontext{0}{heidegger1994a}{nty/global/}
\abx@aux@defaultrefcontext{0}{hughes1988a}{nty/global/}
\abx@aux@defaultrefcontext{0}{illich1985a}{nty/global/}
\abx@aux@defaultrefcontext{0}{kant2005a}{nty/global/}
\abx@aux@defaultrefcontext{0}{kuflik1989a}{nty/global/}
\abx@aux@defaultrefcontext{0}{lessig2011a}{nty/global/}
\abx@aux@defaultrefcontext{0}{lever2012a}{nty/global/}
\abx@aux@defaultrefcontext{0}{locke2006a}{nty/global/}
\abx@aux@defaultrefcontext{0}{moore2012a}{nty/global/}
\abx@aux@defaultrefcontext{0}{moore2008a}{nty/global/}
\abx@aux@defaultrefcontext{0}{moore2014a}{nty/global/}
\abx@aux@defaultrefcontext{0}{raymond2016a}{nty/global/}
\abx@aux@defaultrefcontext{0}{rojo2016a}{nty/global/}
\abx@aux@defaultrefcontext{0}{schroeder2004a}{nty/global/}
\abx@aux@defaultrefcontext{0}{shiffrin2007a}{nty/global/}
\abx@aux@defaultrefcontext{0}{stallman2016a}{nty/global/}
\abx@aux@defaultrefcontext{0}{stengel2004a}{nty/global/}
\abx@aux@defaultrefcontext{0}{cerlalc2015a}{nty/global/}
\abx@aux@defaultrefcontext{0}{indautor1996a}{nty/global/}
\abx@aux@defaultrefcontext{0}{bbc2017a}{nty/global/}
\abx@aux@defaultrefcontext{0}{arkaute2008a}{nty/global/}
\abx@aux@defaultrefcontext{0}{arteaga2008a}{nty/global/}
\abx@aux@defaultrefcontext{0}{boeta2008a}{nty/global/}
\abx@aux@defaultrefcontext{0}{bollier2016a}{nty/global/}
\abx@aux@defaultrefcontext{0}{bravo2005a}{nty/global/}
\abx@aux@defaultrefcontext{0}{breakey2010a}{nty/global/}
\abx@aux@defaultrefcontext{0}{sledu2013a}{nty/global/}
\abx@aux@defaultrefcontext{0}{contitucioneeuu1787a}{nty/global/}
\abx@aux@defaultrefcontext{0}{htec1990a}{nty/global/}
\abx@aux@defaultrefcontext{0}{htec1991a}{nty/global/}
\abx@aux@defaultrefcontext{0}{htec1991b}{nty/global/}
\abx@aux@defaultrefcontext{0}{eff2017a}{nty/global/}
\abx@aux@defaultrefcontext{0}{eco2016a}{nty/global/}
\abx@aux@defaultrefcontext{0}{fiormonte2017a}{nty/global/}
\abx@aux@defaultrefcontext{0}{gilmore2004a}{nty/global/}
\abx@aux@defaultrefcontext{0}{gnu2017a}{nty/global/}
\abx@aux@defaultrefcontext{0}{hettinger1989a}{nty/global/}
\abx@aux@defaultrefcontext{0}{himma2006a}{nty/global/}
\abx@aux@defaultrefcontext{0}{jimenez2008a}{nty/global/}
\abx@aux@defaultrefcontext{0}{lessig2009a}{nty/global/}
\abx@aux@defaultrefcontext{0}{lessig2012a}{nty/global/}
\abx@aux@defaultrefcontext{0}{lessig2001a}{nty/global/}
\abx@aux@defaultrefcontext{0}{levy2016a}{nty/global/}
\abx@aux@defaultrefcontext{0}{publimetro2017a}{nty/global/}
\abx@aux@defaultrefcontext{0}{lopez2008a}{nty/global/}
\abx@aux@defaultrefcontext{0}{mcleod2009a}{nty/global/}
\abx@aux@defaultrefcontext{0}{ming2016a}{nty/global/}
\abx@aux@defaultrefcontext{0}{nivon2016a}{nty/global/}
\abx@aux@defaultrefcontext{0}{ortmann2016a}{nty/global/}
\abx@aux@defaultrefcontext{0}{palmer1990a}{nty/global/}
\abx@aux@defaultrefcontext{0}{papatheo2016a}{nty/global/}
\abx@aux@defaultrefcontext{0}{rangel2016a}{nty/global/}
\abx@aux@defaultrefcontext{0}{readium2017a}{nty/global/}
\abx@aux@defaultrefcontext{0}{rendueles2016a}{nty/global/}
\abx@aux@defaultrefcontext{0}{ringenbach2016a}{nty/global/}
\abx@aux@defaultrefcontext{0}{rose1993a}{nty/global/}
\abx@aux@defaultrefcontext{0}{sanchez2016a}{nty/global/}
\abx@aux@defaultrefcontext{0}{stallman2004a}{nty/global/}
\abx@aux@defaultrefcontext{0}{wayner2000a}{nty/global/}
\abx@aux@defaultrefcontext{0}{sam2010a}{nty/global/}
\abx@aux@defaultrefcontext{0}{htec1988a}{nty/global/}
\abx@aux@defaultrefcontext{0}{htec1988b}{nty/global/}
\abx@aux@defaultrefcontext{0}{yudice2008a}{nty/global/}
