\boolfalse {citerequest}\boolfalse {citetracker}\boolfalse {pagetracker}\boolfalse {backtracker}\relax 
\defcounter {refsection}{0}\relax 
\select@language {spanish}
\defcounter {refsection}{0}\relax 
\contentsline {chapter}{T\IeC {\'\i }tulo}{1}{chapter*.2}
\defcounter {refsection}{0}\relax 
\contentsline {chapter}{Planteamiento}{2}{chapter*.3}
\defcounter {refsection}{0}\relax 
\contentsline {section}{Problema}{2}{section*.4}
\defcounter {refsection}{0}\relax 
\contentsline {section}{Pregunta}{7}{section*.5}
\defcounter {refsection}{0}\relax 
\contentsline {section}{Tesis}{7}{section*.6}
\defcounter {refsection}{0}\relax 
\contentsline {section}{Hip\IeC {\'o}tesis}{8}{section*.7}
\defcounter {refsection}{0}\relax 
\contentsline {chapter}{Objetivos}{12}{chapter*.8}
\defcounter {refsection}{0}\relax 
\contentsline {section}{General}{12}{section*.9}
\defcounter {refsection}{0}\relax 
\contentsline {section}{Particulares}{12}{section*.10}
\defcounter {refsection}{0}\relax 
\contentsline {chapter}{Relevancia}{13}{chapter*.11}
\defcounter {refsection}{0}\relax 
\contentsline {section}{Relevancia filos\IeC {\'o}fica}{13}{section*.12}
\defcounter {refsection}{0}\relax 
\contentsline {section}{Relevancia no filos\IeC {\'o}fica}{13}{section*.13}
\defcounter {refsection}{0}\relax 
\contentsline {chapter}{Aportaci\IeC {\'o}n original}{15}{chapter*.14}
\defcounter {refsection}{0}\relax 
\contentsline {chapter}{\IeC {\'I}ndice tentativo}{16}{chapter*.15}
\defcounter {refsection}{0}\relax 
\contentsline {chapter}{Cronograma}{17}{chapter*.16}
\defcounter {refsection}{0}\relax 
\contentsline {chapter}{Bibliograf\IeC {\'\i }a}{19}{chapter*.17}
\defcounter {refsection}{0}\relax 
\contentsline {section}{Primaria}{19}{section*.18}
\defcounter {refsection}{0}\relax 
\contentsline {section}{Secundaria}{22}{section*.19}
